…
Per partire avremo bisogno di due librerie


```r
library (nycflights13) # tutti i voli del 2013 di New York
library (tidyverse) # ci concentreremo su dplyr
```

nycflights13::flights
========================================================


```
# A tibble: 336,776 x 19
    year month   day dep_time sched_dep_time dep_delay arr_time sched_arr_time
   <int> <int> <int>    <int>          <int>     <dbl>    <int>          <int>
 1  2013     1     1      517            515         2      830            819
 2  2013     1     1      533            529         4      850            830
 3  2013     1     1      542            540         2      923            850
 4  2013     1     1      544            545        -1     1004           1022
 5  2013     1     1      554            600        -6      812            837
 6  2013     1     1      554            558        -4      740            728
 7  2013     1     1      555            600        -5      913            854
 8  2013     1     1      557            600        -3      709            723
 9  2013     1     1      557            600        -3      838            846
10  2013     1     1      558            600        -2      753            745
# ... with 336,766 more rows, and 11 more variables: arr_delay <dbl>,
#   carrier <chr>, flight <int>, tailnum <chr>, origin <chr>, dest <chr>,
#   air_time <dbl>, distance <dbl>, hour <dbl>, minute <dbl>, time_hour <dttm>
```
…
! attenzione che le funzioni dplyr non modificano mai i loro input. Per salvare il risultato si dovrà creare una nuova variabile con `<-`

Filtrare le righe con `filter()`
========================================================

Permette di creare sottoinsiemi di osservazioni in base ai loro valori.


```r
filter(flights, month == 12, day == 25) 
```

```
# A tibble: 719 x 19
    year month   day dep_time sched_dep_time dep_delay arr_time sched_arr_time
   <int> <int> <int>    <int>          <int>     <dbl>    <int>          <int>
 1  2013    12    25      456            500        -4      649            651
 2  2013    12    25      524            515         9      805            814
 3  2013    12    25      542            540         2      832            850
 4  2013    12    25      546            550        -4     1022           1027
 5  2013    12    25      556            600        -4      730            745
 6  2013    12    25      557            600        -3      743            752
 7  2013    12    25      557            600        -3      818            831
 8  2013    12    25      559            600        -1      855            856
 9  2013    12    25      559            600        -1      849            855
10  2013    12    25      600            600         0      850            846
# ... with 709 more rows, and 11 more variables: arr_delay <dbl>,
#   carrier <chr>, flight <int>, tailnum <chr>, origin <chr>, dest <chr>,
#   air_time <dbl>, distance <dbl>, hour <dbl>, minute <dbl>, time_hour <dttm>
```
…
```r
filter(flights, month = 11 | month = 12)
```
 
o in alternativa


```r
filter(flights, month %in% c(11, 12))
```

```
# A tibble: 55,403 x 19
    year month   day dep_time sched_dep_time dep_delay arr_time sched_arr_time
   <int> <int> <int>    <int>          <int>     <dbl>    <int>          <int>
 1  2013    11     1        5           2359         6      352            345
 2  2013    11     1       35           2250       105      123           2356
 3  2013    11     1      455            500        -5      641            651
 4  2013    11     1      539            545        -6      856            827
 5  2013    11     1      542            545        -3      831            855
 6  2013    11     1      549            600       -11      912            923
 7  2013    11     1      550            600       -10      705            659
 8  2013    11     1      554            600        -6      659            701
 9  2013    11     1      554            600        -6      826            827
10  2013    11     1      554            600        -6      749            751
# ... with 55,393 more rows, and 11 more variables: arr_delay <dbl>,
#   carrier <chr>, flight <int>, tailnum <chr>, origin <chr>, dest <chr>,
#   air_time <dbl>, distance <dbl>, hour <dbl>, minute <dbl>, time_hour <dttm>
```
…
Riordinare le righe con `arrange()`
========================================================

Funziona in modo simile a `filter()` tranne per il fatto che invece di selezionare le righe, cambia il loro ordine sulla base di nomi di colonne (o espressioni più complicate).

Ogni nuova colonna fornita viene usata per gestire i pareggi nelle colonne precedenti


```r
arrange(flights, year, month, day)
```

```
# A tibble: 336,776 x 19
    year month   day dep_time sched_dep_time dep_delay arr_time sched_arr_time
   <int> <int> <int>    <int>          <int>     <dbl>    <int>          <int>
 1  2013     1     1      517            515         2      830            819
 2  2013     1     1      533            529         4      850            830
 3  2013     1     1      542            540         2      923            850
 4  2013     1     1      544            545        -1     1004           1022
 5  2013     1     1      554            600        -6      812            837
 6  2013     1     1      554            558        -4      740            728
 7  2013     1     1      555            600        -5      913            854
 8  2013     1     1      557            600        -3      709            723
 9  2013     1     1      557            600        -3      838            846
10  2013     1     1      558            600        -2      753            745
# ... with 336,766 more rows, and 11 more variables: arr_delay <dbl>,
#   carrier <chr>, flight <int>, tailnum <chr>, origin <chr>, dest <chr>,
#   air_time <dbl>, distance <dbl>, hour <dbl>, minute <dbl>, time_hour <dttm>
```

Riordinare in ordine decrescente si fa con `desc()`
========================================================


```r
arrange(flights, desc(dep_delay))
```

```
# A tibble: 336,776 x 19
    year month   day dep_time sched_dep_time dep_delay arr_time sched_arr_time
   <int> <int> <int>    <int>          <int>     <dbl>    <int>          <int>
 1  2013     1     9      641            900      1301     1242           1530
 2  2013     6    15     1432           1935      1137     1607           2120
 3  2013     1    10     1121           1635      1126     1239           1810
 4  2013     9    20     1139           1845      1014     1457           2210
 5  2013     7    22      845           1600      1005     1044           1815
 6  2013     4    10     1100           1900       960     1342           2211
 7  2013     3    17     2321            810       911      135           1020
 8  2013     6    27      959           1900       899     1236           2226
 9  2013     7    22     2257            759       898      121           1026
10  2013    12     5      756           1700       896     1058           2020
# ... with 336,766 more rows, and 11 more variables: arr_delay <dbl>,
#   carrier <chr>, flight <int>, tailnum <chr>, origin <chr>, dest <chr>,
#   air_time <dbl>, distance <dbl>, hour <dbl>, minute <dbl>, time_hour <dttm>
```
…
4. Come potresti usare `arrange()` per ordinare tutti i valori mancanti all'inizio? (suggerimento: usa `! Is.na ()`).


Selezionare le colonne con `select ()`
========================================================

`select ()` consente di ingrandire rapidamente un sottoinsieme utile a quelle davvero interessanti utilizzando operazioni basate sui nomi delle variabili, soprattutto quando queste sono molte.


```r
select(flights, year, month, day) # by name
```

```
# A tibble: 336,776 x 3
    year month   day
   <int> <int> <int>
 1  2013     1     1
 2  2013     1     1
 3  2013     1     1
 4  2013     1     1
 5  2013     1     1
 6  2013     1     1
 7  2013     1     1
 8  2013     1     1
 9  2013     1     1
10  2013     1     1
# ... with 336,766 more rows
```

```r
# all columns between (inclusive)
select(flights, year:day)
```

```
# A tibble: 336,776 x 3
    year month   day
   <int> <int> <int>
 1  2013     1     1
 2  2013     1     1
 3  2013     1     1
 4  2013     1     1
 5  2013     1     1
 6  2013     1     1
 7  2013     1     1
 8  2013     1     1
 9  2013     1     1
10  2013     1     1
# ... with 336,766 more rows
```

```r
# all columns except (inclusive)
select(flights, -(year:day))
```

```
# A tibble: 336,776 x 16
   dep_time sched_dep_time dep_delay arr_time sched_arr_time arr_delay carrier
      <int>          <int>     <dbl>    <int>          <int>     <dbl> <chr>  
 1      517            515         2      830            819        11 UA     
 2      533            529         4      850            830        20 UA     
 3      542            540         2      923            850        33 AA     
 4      544            545        -1     1004           1022       -18 B6     
 5      554            600        -6      812            837       -25 DL     
 6      554            558        -4      740            728        12 UA     
 7      555            600        -5      913            854        19 B6     
 8      557            600        -3      709            723       -14 EV     
 9      557            600        -3      838            846        -8 B6     
10      558            600        -2      753            745         8 AA     
# ... with 336,766 more rows, and 9 more variables: flight <int>,
#   tailnum <chr>, origin <chr>, dest <chr>, air_time <dbl>, distance <dbl>,
#   hour <dbl>, minute <dbl>, time_hour <dttm>
```
…
```r
mutate(flights_sml,
  gain = dep_delay - arr_delay,
  speed = distance / air_time * 60,
  hours = air_time / 60,
  gain_per_hour = gain / hours
)
```

Aggiungere nuove variabili con `mutate()` #2
========================================================


```
# A tibble: 336,776 x 11
    year month   day dep_delay arr_delay distance air_time  gain speed hours
   <int> <int> <int>     <dbl>     <dbl>    <dbl>    <dbl> <dbl> <dbl> <dbl>
 1  2013     1     1         2        11     1400      227    -9  370. 3.78 
 2  2013     1     1         4        20     1416      227   -16  374. 3.78 
 3  2013     1     1         2        33     1089      160   -31  408. 2.67 
 4  2013     1     1        -1       -18     1576      183    17  517. 3.05 
 5  2013     1     1        -6       -25      762      116    19  394. 1.93 
 6  2013     1     1        -4        12      719      150   -16  288. 2.5  
 7  2013     1     1        -5        19     1065      158   -24  404. 2.63 
 8  2013     1     1        -3       -14      229       53    11  259. 0.883
 9  2013     1     1        -3        -8      944      140     5  405. 2.33 
10  2013     1     1        -2         8      733      138   -10  319. 2.3  
# ... with 336,766 more rows, and 1 more variable: gain_per_hour <dbl>
```
…
Ad esempio, nel dataset si può rompere "ora" e "minuto" da "dep_time" con:

***


```r
transmute(flights,
  dep_time,
  hour = dep_time %/% 100,
  minute = dep_time %% 100
)
```

```
# A tibble: 336,776 x 3
   dep_time  hour minute
      <int> <dbl>  <dbl>
 1      517     5     17
 2      533     5     33
 3      542     5     42
 4      544     5     44
 5      554     5     54
 6      554     5     54
 7      555     5     55
 8      557     5     57
 9      557     5     57
10      558     5     58
# ... with 336,766 more rows
```
…
